{
  "metadata" : {
    "realm" : "/",
    "entityType" : "LDAPQueryNode",
    "entityId" : "defaultconfig",
    "uid" : "ou=defaultconfig,ou=OrganizationConfig,ou=1.0,ou=LDAPQueryNode,ou=services,ou=am-config",
    "sunServiceID" : null,
    "objectClass" : [
      "organizationalunit",
      "top",
      "sunServiceComponent"
    ],
    "pathParams" : { },
    "ou" : null
  },
  "data" : {
    "_id" : "defaultconfig",
    "_type" : {
      "_id" : "LDAPQueryNode",
      "name" : "LDAPQueryNode",
      "collection" : false
    }
  }
}
