{
  "metadata": {
    "realm": "/",
    "amsterVersion": "7.1.0",
    "entityType": "OAuth2Clients",
    "entityId": "idm-provisioning",
    "pathParams": {}
  },
  "data": {
    "_id": "idm-provisioning",
    "advancedOAuth2ClientConfig": {
      "contacts": [],
      "clientUri": [],
      "responseTypes": [
        "code",
        "token",
        "id_token",
        "code token",
        "token id_token",
        "code id_token",
        "code token id_token",
        "device_code",
        "device_code id_token"
      ],
      "subjectType": "Public",
      "sectorIdentifierUri": null,
      "tokenEndpointAuthMethod": "client_secret_basic",
      "tokenExchangeAuthLevel": 0,
      "isConsentImplied": true,
      "updateAccessToken": null,
      "grantTypes": [
        "client_credentials"
      ],
      "customProperties": [],
      "requestUris": [],
      "logoUri": [],
      "name": [],
      "descriptions": [],
      "policyUri": [],
      "mixUpMitigation": false,
      "javascriptOrigins": []
    },
    "coreOpenIDClientConfig": {
      "defaultMaxAgeEnabled": false,
      "claims": [],
      "clientSessionUri": null,
      "defaultMaxAge": 600,
      "postLogoutRedirectUri": [],
      "jwtTokenLifetime": 0,
      "defaultAcrValues": []
    },
    "signEncOAuth2ClientConfig": {
      "userinfoEncryptedResponseEncryptionAlgorithm": "A128CBC-HS256",
      "requestParameterEncryptedEncryptionAlgorithm": "A128CBC-HS256",
      "userinfoSignedResponseAlg": null,
      "clientJwtPublicKey": null,
      "idTokenEncryptionAlgorithm": "RSA-OAEP-256",
      "jwksUri": null,
      "requestParameterEncryptedAlg": null,
      "idTokenSignedResponseAlg": "RS256",
      "jwksCacheTimeout": 3600000,
      "idTokenEncryptionEnabled": false,
      "mTLSTrustedCert": null,
      "tokenIntrospectionResponseFormat": "JSON",
      "idTokenPublicEncryptionKey": null,
      "tokenEndpointAuthSigningAlgorithm": "RS256",
      "mTLSCertificateBoundAccessTokens": false,
      "tokenIntrospectionEncryptedResponseAlg": "RSA-OAEP-256",
      "jwkSet": null,
      "jwkStoreCacheMissCacheTime": 60000,
      "tokenIntrospectionEncryptedResponseEncryptionAlgorithm": "A128CBC-HS256",
      "tokenIntrospectionSignedResponseAlg": "RS256",
      "userinfoEncryptedResponseAlg": null,
      "mTLSSubjectDN": null,
      "publicKeyLocation": "jwks_uri",
      "userinfoResponseFormat": "JSON",
      "idTokenEncryptionMethod": "A128CBC-HS256",
      "requestParameterSignedAlg": null
    },
    "coreOAuth2ClientConfig": {
      "status": "Active",
      "loopbackInterfaceRedirection": false,
      "authorizationCodeLifetime": 0,
      "userpassword": "password",
      "redirectionUris": [],
      "accessTokenLifetime": 0,
      "clientType": "Confidential",
      "scopes": [
        "openid",
        "fr:idm:*"
      ],
      "refreshTokenLifetime": 0,
      "clientName": [],
      "defaultScopes": [],
      "agentgroup": null
    },
    "coreUmaClientConfig": {
      "claimsRedirectionUris": []
    },
    "_type": {
      "_id": "OAuth2Client",
      "name": "OAuth2 Clients",
      "collection": true
    }
  }
}
