{
  "metadata" : {
    "realm" : "/",
    "amsterVersion" : "7.1.0",
    "entityType" : "Applications",
    "entityId" : "iPlanetAMWebAgentService",
    "pathParams" : { }
  },
  "data" : {
    "_id" : "iPlanetAMWebAgentService",
    "resourceTypeUuids" : [ "76656a38-5f8e-401b-83aa-4ccb74ce88d2" ],
    "displayName" : "Default Policy Set",
    "name" : "iPlanetAMWebAgentService",
    "description" : "The built-in Application used by OpenAM Policy Agents.",
    "attributeNames" : [ ],
    "createdBy" : "id=dsameuser,ou=user,ou=am-config",
    "conditions" : [ "Script", "AMIdentityMembership", "IPv6", "SimpleTime", "IPv4", "LEAuthLevel", "LDAPFilter", "AuthScheme", "Session", "AND", "AuthenticateToRealm", "ResourceEnvIP", "SessionProperty", "OAuth2Scope", "OR", "Transaction", "NOT", "AuthLevel", "AuthenticateToService" ],
    "lastModifiedBy" : "id=amadmin,ou=user,ou=am-config",
    "creationDate" : 1578580065033,
    "lastModifiedDate" : 1630893203246,
    "saveIndex" : null,
    "searchIndex" : null,
    "resourceComparator" : null,
    "applicationType" : "iPlanetAMWebAgentService",
    "entitlementCombiner" : "DenyOverride",
    "subjects" : [ "AuthenticatedUsers", "NOT", "Identity", "OR", "AND", "NONE", "JwtClaim" ],
    "editable" : true
  }
}